Advanced Modeling Topics | PSQF 6250
…
Interactions

Interactions are an important modeling concept that can greatly increase model fit, prediction accuracy, and explained variance. Interactions can be difficult to interpret, however, we will explore them in more detail here with particular attention to graphical displays of interactions and also exploring the design matrix for how interactions are included in the model fitting procedure.

We will use the heights data from the modelr package to explore interactions. The primary interactions that we will explore are between two (or more) categorical predictors and also the interaction between a categorical predictor and a continuous predictor. Interpretations are similar between two continuous predictors as well.

Here are the first few rows of the data:

heights

## # A tibble: 7,006 x 8
##    income height weight   age marital  sex    education  afqt
##     <int>  <dbl>  <int> <int> <fct>    <fct>      <int> <dbl>
##  1  19000     60    155    53 married  female        13  6.84
##  2  35000     70    156    51 married  female        10 49.4 
##  3 105000     65    195    52 married  male          16 99.4 
##  4  40000     63    197    54 married  female        14 44.0 
##  5  75000     66    190    49 married  male          14 59.7 
##  6 102000     68    200    49 divorced female        18 98.8 
##  7      0     74    225    48 married  male          16 82.3 
##  8  70000     64    160    54 divorced female        12 50.3 
##  9  60000     69    162    55 divorced male          12 89.7 
## 10 150000     69    194    54 divorced male          13 96.0 
## # … with 6,996 more rows
…
This model only contains what are often referred to as main effects. Namely, these are only the additive effects of sex and marital variables. To get a sense as to what the design matrix looks like, we can use model_matrix.

model_matrix(heights, afqt ~ sex + marital_comb)

## # A tibble: 6,744 x 5
##    `(Intercept)` sexfemale marital_combmarri… marital_combOth… marital_combdivo…
##            <dbl>     <dbl>              <dbl>            <dbl>             <dbl>
##  1             1         1                  1                0                 0
##  2             1         1                  1                0                 0
##  3             1         0                  1                0                 0
##  4             1         1                  1                0                 0
##  5             1         0                  1                0                 0
##  6             1         1                  0                0                 1
##  7             1         0                  1                0                 0
##  8             1         1                  0                0                 1
##  9             1         0                  0                0                 1
## 10             1         0                  0                0                 1
## # … with 6,734 more rows
…
In this model, there are not actually any significant results for the interaction, but lets explore the design matrix to see exactly what is happening.

model_matrix(heights, afqt ~ sex + marital_comb + sex:marital_comb)

## # A tibble: 6,744 x 8
##    `(Intercept)` sexfemale marital_combmarri… marital_combOth… marital_combdivo…
##            <dbl>     <dbl>              <dbl>            <dbl>             <dbl>
##  1             1         1                  1                0                 0
##  2             1         1                  1                0                 0
##  3             1         0                  1                0                 0
##  4             1         1                  1                0                 0
##  5             1         0                  1                0                 0
##  6             1         1                  0                0                 1
##  7             1         0                  1                0                 0
##  8             1         1                  0                0                 1
##  9             1         0                  0                0                 1
## 10             1         0                  0                0                 1
## # … with 6,734 more rows, and 3 more variables:
## #   sexfemale:marital_combmarried <dbl>, sexfemale:marital_combOther <dbl>,
## #   sexfemale:marital_combdivorced <dbl>
…
What do these coefficients mean however? This is best explained with a picture.

model_summary <- augment(lm(afqt ~ marital_comb * I(height - mean(heights$height)), 
                            data = heights))
model_summary <- rename(model_summary, 'height_center' = `I(height - mean(heights$height))`)
model_summary

## # A tibble: 6,744 x 9
##    .rownames  afqt marital_comb height_center .fitted     .hat .sigma    .cooksd
##    <chr>     <dbl> <fct>             <I<dbl>>   <dbl>    <dbl>  <dbl>      <dbl>
##  1 1          6.84 married             -7.10     40.4 0.00115    27.8    2.09e-4
##  2 2         49.4  married              2.90     50.3 0.000390   27.8    4.39e-8
##  3 3         99.4  married             -2.10     45.3 0.000360   27.8    1.70e-4
##  4 4         44.0  married             -4.10     43.3 0.000576   27.8    4.33e-8
##  5 5         59.7  married             -1.10     46.3 0.000301   27.8    8.70e-6
##  6 6         98.8  divorced             0.896    38.6 0.000737   27.8    4.33e-4
##  7 7         82.3  married              6.90     54.2 0.00100    27.8    1.28e-4
##  8 8         50.3  divorced            -3.10     35.7 0.000976   27.8    3.37e-5
##  9 9         89.7  divorced             1.90     39.4 0.000884   27.8    3.63e-4
## 10 10        96.0  divorced             1.90     39.4 0.000884   27.8    4.59e-4
## # … with 6,734 more rows, and 1 more variable: .std.resid <dbl>
…
The figure for the traditional ANCOVA model initially explored would look like:

model_summary <- augment(lm(afqt ~ marital_comb + I(height - mean(heights$height)), 
                            data = heights))
model_summary <- rename(model_summary, 'height_center' = `I(height - mean(heights$height))`)
model_summary

## # A tibble: 6,744 x 9
##    .rownames  afqt marital_comb height_center .fitted     .hat .sigma    .cooksd
##    <chr>     <dbl> <fct>             <I<dbl>>   <dbl>    <dbl>  <dbl>      <dbl>
##  1 1          6.84 married             -7.10     41.0 0.000753   27.8    2.29e-4
##  2 2         49.4  married              2.90     50.0 0.000337   27.8    2.99e-8
##  3 3         99.4  married             -2.10     45.5 0.000320   27.8    2.41e-4
##  4 4         44.0  married             -4.10     43.7 0.000439   27.8    9.09e-9
##  5 5         59.7  married             -1.10     46.4 0.000288   27.8    1.31e-5
##  6 6         98.8  divorced             0.896    38.9 0.000684   27.8    6.38e-4
##  7 7         82.3  married              6.90     53.6 0.000674   27.8    1.44e-4
##  8 8         50.3  divorced            -3.10     35.3 0.000736   27.8    4.31e-5
##  9 9         89.7  divorced             1.90     39.7 0.000716   27.8    4.63e-4
## 10 10        96.0  divorced             1.90     39.7 0.000716   27.8    5.88e-4
## # … with 6,734 more rows, and 1 more variable: .std.resid <dbl>
…
