Building Upon Linear Models | PSQF 6250
…
library(tidyverse)
library(modelr)
library(broom)
library(fivethirtyeight)
library(forcats)

More than two categorical levels

Last week we explored a linear model framework for a two sample t-test (and the homework has you explore fitting a one-sample t-test in a linear model framework). I now want to generalize this idea to more than two categorical levels. It is traditional to think about these types of models as analysis of variance (ANOVA) models, however, the same model can be fitted in a linear model framework as well.

For this set of notes, we are going to make use of the gss_cat data found in the forcats package. Below are the first few rows of the data:

gss_cat

## # A tibble: 21,483 × 9
##     year marital         age race  rincome        partyid    relig denom tvhours
##    <int> <fct>         <int> <fct> <fct>          <fct>      <fct> <fct>   <int>
##  1  2000 Never married    26 White $8000 to 9999  Ind,near … Prot… Sout…      12
##  2  2000 Divorced         48 White $8000 to 9999  Not str r… Prot… Bapt…      NA
##  3  2000 Widowed          67 White Not applicable Independe… Prot… No d…       2
##  4  2000 Never married    39 White Not applicable Ind,near … Orth… Not …       4
##  5  2000 Divorced         25 White Not applicable Not str d… None  Not …       1
##  6  2000 Married          25 White $20000 - 24999 Strong de… Prot… Sout…      NA
##  7  2000 Never married    36 White $25000 or more Not str r… Chri… Not …       3
##  8  2000 Divorced         44 White $7000 to 7999  Ind,near … Prot… Luth…      NA
##  9  2000 Married          44 White $25000 or more Not str d… Prot… Other       0
## 10  2000 Married          47 White $25000 or more Strong re… Prot… Sout…       3
## # … with 21,473 more rows
…
To explore what the lm function is doing internally, the design matrix is a natural way to do this.

model_matrix(gss_cat, tvhours ~ marital_miss)

## # A tibble: 11,328 × 5
##    `(Intercept)` marital_missSeparated marital_missDivorced marital_missWidowed
##            <dbl>                 <dbl>                <dbl>               <dbl>
##  1             1                     0                    0                   0
##  2             1                     0                    0                   1
##  3             1                     0                    0                   0
##  4             1                     0                    1                   0
##  5             1                     0                    0                   0
##  6             1                     0                    0                   0
##  7             1                     0                    0                   0
##  8             1                     0                    0                   0
##  9             1                     0                    0                   0
## 10             1                     0                    1                   0
## # … with 11,318 more rows, and 1 more variable: marital_missMarried <dbl>
…
