User Created Functions | PSQF 6250
…
## ── Attaching packages ─────────────────────────────────────── tidyverse 1.3.0 ──

## ✓ ggplot2 3.3.3     ✓ purrr   0.3.4
## ✓ tibble  3.1.0     ✓ dplyr   1.0.4
## ✓ tidyr   1.1.2     ✓ stringr 1.4.0
## ✓ readr   1.4.0     ✓ forcats 0.5.1

## ── Conflicts ────────────────────────────────────────── tidyverse_conflicts() ──
## x dplyr::filter() masks stats::filter()
## x dplyr::lag()    masks stats::lag()

midwest

## # A tibble: 437 x 28
##      PID county  state  area poptotal popdensity popwhite popblack popamerindian
##    <int> <chr>   <chr> <dbl>    <int>      <dbl>    <int>    <int>         <int>
##  1   561 ADAMS   IL    0.052    66090      1271.    63917     1702            98
##  2   562 ALEXAN… IL    0.014    10626       759      7054     3496            19
##  3   563 BOND    IL    0.022    14991       681.    14477      429            35
##  4   564 BOONE   IL    0.017    30806      1812.    29344      127            46
##  5   565 BROWN   IL    0.018     5836       324.     5264      547            14
##  6   566 BUREAU  IL    0.05     35688       714.    35157       50            65
##  7   567 CALHOUN IL    0.017     5322       313.     5298        1             8
##  8   568 CARROLL IL    0.027    16805       622.    16519      111            30
##  9   569 CASS    IL    0.024    13437       560.    13384       16             8
## 10   570 CHAMPA… IL    0.058   173025      2983.   146506    16559           331
## # … with 427 more rows, and 19 more variables: popasian <int>, popother <int>,
## #   percwhite <dbl>, percblack <dbl>, percamerindan <dbl>, percasian <dbl>,
## #   percother <dbl>, popadults <int>, perchsd <dbl>, percollege <dbl>,
## #   percprof <dbl>, poppovertyknown <int>, percpovertyknown <dbl>,
## #   percbelowpoverty <dbl>, percchildbelowpovert <dbl>, percadultpoverty <dbl>,
## #   percelderlypoverty <dbl>, inmetro <int>, category <chr>

Suppose we wanted to standardize using the above equation, for the variables, poptotal, popdensity, popadults, and perccollege. Let’s do the computation for the variable poptotal first.

midwest %>%
  mutate(stand_poptotal = (poptotal - mean(poptotal)) / sd(poptotal)) %>%
  select(poptotal, stand_poptotal)

## # A tibble: 437 x 2
##    poptotal stand_poptotal
##       <int>          <dbl>
##  1    66090         -0.101
##  2    10626         -0.287
##  3    14991         -0.272
##  4    30806         -0.219
##  5     5836         -0.303
##  6    35688         -0.203
##  7     5322         -0.305
##  8    16805         -0.266
##  9    13437         -0.277
## 10   173025          0.258
## # … with 427 more rows

How would we move alter the code to do the computation for subsequent columns? You could rewrite the code, but I would likely copy and paste the code and adapt the pieces to the new column. Here I did it for the additional three variables.

midwest %>%
  mutate(stand_poptotal = (poptotal - mean(poptotal)) / sd(poptotal),
         stand_popdensity = (popdensity - mean(popdensity)) / sd(popdensity),
         stand_popadults = (popadults - mean(popadults)) / sd(popadults),
         stand_percollege = (percollege - mean(poptotal)) / sd(percollege)) %>%
  select(poptotal, popdensity, popadults, percollege, 
         stand_poptotal, stand_popdensity, stand_popadults, stand_percollege)

## # A tibble: 437 x 8
##    poptotal popdensity popadults percollege stand_poptotal stand_popdensity
##       <int>      <dbl>     <int>      <dbl>          <dbl>            <dbl>
##  1    66090      1271.     43298       19.6         -0.101          -0.238 
##  2    10626       759       6724       11.2         -0.287          -0.305 
##  3    14991       681.      9669       17.0         -0.272          -0.315 
##  4    30806      1812.     19272       17.3         -0.219          -0.168 
##  5     5836       324.      3979       14.5         -0.303          -0.362 
##  6    35688       714.     23444       18.9         -0.203          -0.311 
##  7     5322       313.      3583       11.9         -0.305          -0.363 
##  8    16805       622.     11323       16.2         -0.266          -0.323 
##  9    13437       560.      8825       14.1         -0.277          -0.331 
## 10   173025      2983.     95971       41.3          0.258          -0.0149
## # … with 427 more rows, and 2 more variables: stand_popadults <dbl>,
## #   stand_percollege <dbl>
…
  (x - mean_var) / sd_var
}

We could then use this function, standardize() inside of the mutate() function.

midwest %>%
  mutate(stand_poptotal = standardize(poptotal),
         stand_popdensity = standardize(popdensity),
         stand_popadults = standardize(popadults),
         stand_percollege = standardize(percollege)) %>%
  select(poptotal, popdensity, popadults, percollege, 
         stand_poptotal, stand_popdensity, stand_popadults, stand_percollege)

## # A tibble: 437 x 8
##    poptotal popdensity popadults percollege stand_poptotal stand_popdensity
##       <int>      <dbl>     <int>      <dbl>          <dbl>            <dbl>
##  1    66090      1271.     43298       19.6         -0.101          -0.238 
##  2    10626       759       6724       11.2         -0.287          -0.305 
##  3    14991       681.      9669       17.0         -0.272          -0.315 
##  4    30806      1812.     19272       17.3         -0.219          -0.168 
##  5     5836       324.      3979       14.5         -0.303          -0.362 
##  6    35688       714.     23444       18.9         -0.203          -0.311 
##  7     5322       313.      3583       11.9         -0.305          -0.363 
##  8    16805       622.     11323       16.2         -0.266          -0.323 
##  9    13437       560.      8825       14.1         -0.277          -0.331 
## 10   173025      2983.     95971       41.3          0.258          -0.0149
## # … with 427 more rows, and 2 more variables: stand_popadults <dbl>,
## #   stand_percollege <dbl>
Notice now we remove some, but not all of the duplication. Next week we will explore iteration in more detail that can remove this level of duplication.

Your Turn

There is an R function, scale(), that does this standardization. Use this to recreate the standardization above.

Will the standardize() function above work when there are missing values? How could the function be adapted to work with missing values?

Conditional summarise() or mutate() statements

One thing I want to show briefly is if you are attempting to apply a particular function for data verification and there is a function already defined in R, summarise_if() or mutate_if() can be particularly useful. Take an example of wanting to calculate the mean of each numeric column, but the data has a mix of numeric and categorical variables. You could write multiple computations within mutate() or summarise(), but summarise_if() and mutate_if() can be particularly useful. Below is an example of this strategy with the mpg data from dplyr.

mpg

## # A tibble: 234 x 11
##    manufacturer model    displ  year   cyl trans   drv     cty   hwy fl    class
##    <chr>        <chr>    <dbl> <int> <int> <chr>   <chr> <int> <int> <chr> <chr>
##  1 audi         a4         1.8  1999     4 auto(l… f        18    29 p     comp…
##  2 audi         a4         1.8  1999     4 manual… f        21    29 p     comp…
##  3 audi         a4         2    2008     4 manual… f        20    31 p     comp…
##  4 audi         a4         2    2008     4 auto(a… f        21    30 p     comp…
##  5 audi         a4         2.8  1999     6 auto(l… f        16    26 p     comp…
##  6 audi         a4         2.8  1999     6 manual… f        18    26 p     comp…
##  7 audi         a4         3.1  2008     6 auto(a… f        18    27 p     comp…
##  8 audi         a4 quat…   1.8  1999     4 manual… 4        18    26 p     comp…
##  9 audi         a4 quat…   1.8  1999     4 auto(l… 4        16    25 p     comp…
## 10 audi         a4 quat…   2    2008     4 manual… 4        20    28 p     comp…
## # … with 224 more rows
…
  (x - mean_var) / sd_var
}

Notice that the function argument, x here is just named it does not have a default value. This was the case where this argument was specified to be the variable to be standardized, therefore having a default value did not make sense. The first function arguments are commonly do not have default values.

In a “Your Turn” section earlier, it was asked if this function would work with missing data. The short answer, is it would not, because the mean and sd would not be able to be calculated with missing values. For example, using the nycflights13 package used earlier, we could show that when missing data are present, the function breaks (i.e. produces NA values).

library(nycflights13)

flights %>%
  mutate(stand_arr_delay = standardize(arr_delay)) %>%
  select(arr_delay, stand_arr_delay)

## # A tibble: 336,776 x 2
##    arr_delay stand_arr_delay
##        <dbl>           <dbl>
##  1        11              NA
##  2        20              NA
##  3        33              NA
##  4       -18              NA
##  5       -25              NA
##  6        12              NA
##  7        19              NA
##  8       -14              NA
##  9        -8              NA
## 10         8              NA
## # … with 336,766 more rows

We could adapt this to include another function argument, that deals with how missing data should be handled.

standardize <- function(x, na.rm = TRUE) {
  mean_var <- mean(x, na.rm = na.rm)
  sd_var <- sd(x, na.rm = na.rm)
  
  (x - mean_var) / sd_var
}

flights %>%
  mutate(stand_arr_delay = standardize(arr_delay)) %>%
  select(arr_delay, stand_arr_delay)

## # A tibble: 336,776 x 2
##    arr_delay stand_arr_delay
##        <dbl>           <dbl>
##  1        11          0.0920
##  2        20          0.294 
##  3        33          0.585 
##  4       -18         -0.558 
##  5       -25         -0.715 
##  6        12          0.114 
##  7        19          0.271 
##  8       -14         -0.468 
##  9        -8         -0.334 
## 10         8          0.0247
## # … with 336,766 more rows

This function can now handle missing values through the argument, na.rm, which defaults to the value of TRUE and since the default value is TRUE, the missing data are automatically removed when computing the mean and sd. We could change the default value explicitly when we call the function.

flights %>%
  mutate(stand_arr_delay = standardize(arr_delay, na.rm = FALSE)) %>%
  select(arr_delay, stand_arr_delay)

## # A tibble: 336,776 x 2
##    arr_delay stand_arr_delay
##        <dbl>           <dbl>
##  1        11              NA
##  2        20              NA
##  3        33              NA
##  4       -18              NA
##  5       -25              NA
##  6        12              NA
##  7        19              NA
##  8       -14              NA
##  9        -8              NA
## 10         8              NA
## # … with 336,766 more rows
…
