Data Manipulation | PSQF 6250
…
install.packages("fivethirtyeight")

To get started with this set of notes, you will need the following packages loaded:

library(fivethirtyeight)
library(tidyverse)

We are going to explore the congress_age data set in more detail. Take a few minutes to familiarize yourself with the data.

View(congress_age)
?congress_age

congress_age

## # A tibble: 18,635 x 13
##    congress chamber bioguide firstname middlename lastname  suffix birthday  
##       <int> <chr>   <chr>    <chr>     <chr>      <chr>     <chr>  <date>    
##  1       80 house   M000112  Joseph    Jefferson  Mansfield <NA>   1861-02-09
##  2       80 house   D000448  Robert    Lee        Doughton  <NA>   1863-11-07
##  3       80 house   S000001  Adolph    Joachim    Sabath    <NA>   1866-04-04
##  4       80 house   E000023  Charles   Aubrey     Eaton     <NA>   1868-03-29
##  5       80 house   L000296  William   <NA>       Lewis     <NA>   1868-09-22
##  6       80 house   G000017  James     A.         Gallagher <NA>   1869-01-16
##  7       80 house   W000265  Richard   Joseph     Welch     <NA>   1869-02-13
##  8       80 house   B000565  Sol       <NA>       Bloom     <NA>   1870-03-09
##  9       80 house   H000943  Merlin    <NA>       Hull      <NA>   1870-12-18
## 10       80 house   G000169  Charles   Laceille   Gifford   <NA>   1871-03-15
## # … with 18,625 more rows, and 5 more variables: state <chr>, party <chr>,
## #   incumbent <lgl>, termstart <date>, age <dbl>
…
select()

mutate()

summarise()

The great aspect of these verbs are that they all take a similar data structure, the first argument is always the data, the other arguments are unquoted column names. These functions also always return a data frame in which the rows are observations and the columns are variables.

Examples with filter()

The filter function selects rows that match a specified condition(s). For example, suppose we wanted to select only the rows in the data that are a part of the 80th congress. The following code will do this action:

filter(congress_age, congress == 80)

## # A tibble: 555 x 13
##    congress chamber bioguide firstname middlename lastname  suffix birthday  
##       <int> <chr>   <chr>    <chr>     <chr>      <chr>     <chr>  <date>    
##  1       80 house   M000112  Joseph    Jefferson  Mansfield <NA>   1861-02-09
##  2       80 house   D000448  Robert    Lee        Doughton  <NA>   1863-11-07
##  3       80 house   S000001  Adolph    Joachim    Sabath    <NA>   1866-04-04
##  4       80 house   E000023  Charles   Aubrey     Eaton     <NA>   1868-03-29
##  5       80 house   L000296  William   <NA>       Lewis     <NA>   1868-09-22
##  6       80 house   G000017  James     A.         Gallagher <NA>   1869-01-16
##  7       80 house   W000265  Richard   Joseph     Welch     <NA>   1869-02-13
##  8       80 house   B000565  Sol       <NA>       Bloom     <NA>   1870-03-09
##  9       80 house   H000943  Merlin    <NA>       Hull      <NA>   1870-12-18
## 10       80 house   G000169  Charles   Laceille   Gifford   <NA>   1871-03-15
## # … with 545 more rows, and 5 more variables: state <chr>, party <chr>,
## #   incumbent <lgl>, termstart <date>, age <dbl>
…
Notice now that the data were not automatically printed, instead it was saved into the object called congress_80. If you wish to preview the data and save it to an object in a single step, you need to wrap the command above in parentheses. Take a second to try this yourself.

Secondly, notice from the above commands that equality in R is done with == not just a single =. The single = is used for named arguments, therefore when testing for equality you need to be sure to use ==, this is a common frustration and source of bugs when getting started with R.

Selecting values based on a character vector are similar to numeric values. For example, suppose we wanted to select only those rows pertaining to those from the senate. The following code will do that:

senate <- filter(congress_age, chamber == 'senate')

Combining Logical Operations

The filter function becomes much more useful with more complex operations. For example, suppose we were interested in selecting the rows that belong to the 80th senate.

filter(congress_age, congress == 80, chamber == 'senate')

## # A tibble: 102 x 13
##    congress chamber bioguide firstname middlename lastname suffix birthday  
##       <int> <chr>   <chr>    <chr>     <chr>      <chr>    <chr>  <date>    
##  1       80 senate  C000133  Arthur    <NA>       Capper   <NA>   1865-07-14
##  2       80 senate  G000418  Theodore  Francis    Green    <NA>   1867-10-02
##  3       80 senate  M000499  Kenneth   Douglas    McKellar <NA>   1869-01-29
##  4       80 senate  R000112  Clyde     Martin     Reed     <NA>   1871-10-19
##  5       80 senate  M000895  Edward    Hall       Moore    <NA>   1871-11-19
##  6       80 senate  O000146  John      Holmes     Overton  <NA>   1875-09-17
##  7       80 senate  M001108  James     Edward     Murray   <NA>   1876-05-03
##  8       80 senate  M000308  Patrick   Anthony    McCarran <NA>   1876-08-08
##  9       80 senate  T000165  Elmer     <NA>       Thomas   <NA>   1876-09-08
## 10       80 senate  W000021  Robert    Ferdinand  Wagner   <NA>   1877-06-08
## # … with 92 more rows, and 5 more variables: state <chr>, party <chr>,
## #   incumbent <lgl>, termstart <date>, age <dbl>

By default, the filter function uses AND when combining multiple arguments. Therefore, the above command returned only the 102 rows belonging to senators from the 80th congress. The figure on section 5.2.2 of R for Data Science shows all the possible boolean operators.

Using an example of the OR operator using | to select the 80th and 81st congress:

filter(congress_age, congress == 80 | congress == 81)

## # A tibble: 1,112 x 13
##    congress chamber bioguide firstname middlename lastname  suffix birthday  
##       <int> <chr>   <chr>    <chr>     <chr>      <chr>     <chr>  <date>    
##  1       80 house   M000112  Joseph    Jefferson  Mansfield <NA>   1861-02-09
##  2       80 house   D000448  Robert    Lee        Doughton  <NA>   1863-11-07
##  3       80 house   S000001  Adolph    Joachim    Sabath    <NA>   1866-04-04
##  4       80 house   E000023  Charles   Aubrey     Eaton     <NA>   1868-03-29
##  5       80 house   L000296  William   <NA>       Lewis     <NA>   1868-09-22
##  6       80 house   G000017  James     A.         Gallagher <NA>   1869-01-16
##  7       80 house   W000265  Richard   Joseph     Welch     <NA>   1869-02-13
##  8       80 house   B000565  Sol       <NA>       Bloom     <NA>   1870-03-09
##  9       80 house   H000943  Merlin    <NA>       Hull      <NA>   1870-12-18
## 10       80 house   G000169  Charles   Laceille   Gifford   <NA>   1871-03-15
## # … with 1,102 more rows, and 5 more variables: state <chr>, party <chr>,
## #   incumbent <lgl>, termstart <date>, age <dbl>

Note that to do the OR operator, you need to name the variable twice. When selecting multiple values in the same variable, a handy shortcut is %in%. The same command can be run with the following shorthand: handy shortcut is %in%. The same command can be run with the following shorthard

filter(congress_age, congress %in% c(80, 81))

## # A tibble: 1,112 x 13
##    congress chamber bioguide firstname middlename lastname  suffix birthday  
##       <int> <chr>   <chr>    <chr>     <chr>      <chr>     <chr>  <date>    
##  1       80 house   M000112  Joseph    Jefferson  Mansfield <NA>   1861-02-09
##  2       80 house   D000448  Robert    Lee        Doughton  <NA>   1863-11-07
##  3       80 house   S000001  Adolph    Joachim    Sabath    <NA>   1866-04-04
##  4       80 house   E000023  Charles   Aubrey     Eaton     <NA>   1868-03-29
##  5       80 house   L000296  William   <NA>       Lewis     <NA>   1868-09-22
##  6       80 house   G000017  James     A.         Gallagher <NA>   1869-01-16
##  7       80 house   W000265  Richard   Joseph     Welch     <NA>   1869-02-13
##  8       80 house   B000565  Sol       <NA>       Bloom     <NA>   1870-03-09
##  9       80 house   H000943  Merlin    <NA>       Hull      <NA>   1870-12-18
## 10       80 house   G000169  Charles   Laceille   Gifford   <NA>   1871-03-15
## # … with 1,102 more rows, and 5 more variables: state <chr>, party <chr>,
## #   incumbent <lgl>, termstart <date>, age <dbl>

Not Operator

Another useful operator that deserves a bit more discussion is the not operator, !. For example, suppose we wanted to omit the 80th congress:

filter(congress_age, congress != 80)

## # A tibble: 18,080 x 13
##    congress chamber bioguide firstname middlename lastname suffix birthday  
##       <int> <chr>   <chr>    <chr>     <chr>      <chr>    <chr>  <date>    
##  1       81 house   D000448  Robert    Lee        Doughton <NA>   1863-11-07
##  2       81 house   S000001  Adolph    Joachim    Sabath   <NA>   1866-04-04
##  3       81 house   E000023  Charles   Aubrey     Eaton    <NA>   1868-03-29
##  4       81 house   W000265  Richard   Joseph     Welch    <NA>   1869-02-13
##  5       81 house   B000565  Sol       <NA>       Bloom    <NA>   1870-03-09
##  6       81 house   H000943  Merlin    <NA>       Hull     <NA>   1870-12-18
##  7       81 house   B000545  Schuyler  Otis       Bland    <NA>   1872-05-04
##  8       81 house   K000138  John      Hosea      Kerr     <NA>   1873-12-31
##  9       81 house   C000932  Robert    <NA>       Crosser  <NA>   1874-06-07
## 10       81 house   K000039  John      <NA>       Kee      <NA>   1874-08-22
## # … with 18,070 more rows, and 5 more variables: state <chr>, party <chr>,
## #   incumbent <lgl>, termstart <date>, age <dbl>

It is also possible to do not with an AND operator as follows:

filter(congress_age, congress == 80 & !chamber == 'senate')

## # A tibble: 453 x 13
##    congress chamber bioguide firstname middlename lastname  suffix birthday  
##       <int> <chr>   <chr>    <chr>     <chr>      <chr>     <chr>  <date>    
##  1       80 house   M000112  Joseph    Jefferson  Mansfield <NA>   1861-02-09
##  2       80 house   D000448  Robert    Lee        Doughton  <NA>   1863-11-07
##  3       80 house   S000001  Adolph    Joachim    Sabath    <NA>   1866-04-04
##  4       80 house   E000023  Charles   Aubrey     Eaton     <NA>   1868-03-29
##  5       80 house   L000296  William   <NA>       Lewis     <NA>   1868-09-22
##  6       80 house   G000017  James     A.         Gallagher <NA>   1869-01-16
##  7       80 house   W000265  Richard   Joseph     Welch     <NA>   1869-02-13
##  8       80 house   B000565  Sol       <NA>       Bloom     <NA>   1870-03-09
##  9       80 house   H000943  Merlin    <NA>       Hull      <NA>   1870-12-18
## 10       80 house   G000169  Charles   Laceille   Gifford   <NA>   1871-03-15
## # … with 443 more rows, and 5 more variables: state <chr>, party <chr>,
## #   incumbent <lgl>, termstart <date>, age <dbl>
…
There are no missing data in the congress data, however, by default the filter function will not return any missing values. In order to select missing data, you need to use the is.na function.

Exercise

Given the following simple vector, run one filter that selects all values greater than 100. Write a second filter command that selects all the rows greater than 100 and also the NA value.

df <- tibble(x = c(200, 30, NA, 45, 212))

Examples with arrange()

The arrange function is used for ordering rows in the data. For example, suppose we wanted to order the rows in the congress data by the state the members of congress lived in. This can be done using the arrange function as follows:

arrange(congress_age, state)

## # A tibble: 18,635 x 13
##    congress chamber bioguide firstname middlename lastname suffix birthday  
##       <int> <chr>   <chr>    <chr>     <chr>      <chr>    <chr>  <date>    
##  1       80 house   B000201  Edward    Lewis      Bartlett <NA>   1904-04-20
##  2       81 house   B000201  Edward    Lewis      Bartlett <NA>   1904-04-20
##  3       82 house   B000201  Edward    Lewis      Bartlett <NA>   1904-04-20
##  4       83 house   B000201  Edward    Lewis      Bartlett <NA>   1904-04-20
##  5       84 house   B000201  Edward    Lewis      Bartlett <NA>   1904-04-20
##  6       85 house   B000201  Edward    Lewis      Bartlett <NA>   1904-04-20
##  7       86 house   R000282  Ralph     Julian     Rivers   <NA>   1903-05-23
##  8       86 senate  G000508  Ernest    <NA>       Gruening <NA>   1887-02-06
##  9       86 senate  B000201  Edward    Lewis      Bartlett <NA>   1904-04-20
## 10       87 house   R000282  Ralph     Julian     Rivers   <NA>   1903-05-23
## # … with 18,625 more rows, and 5 more variables: state <chr>, party <chr>,
## #   incumbent <lgl>, termstart <date>, age <dbl>

Similar to the filter function, additional arguments can be added to add more layers to the ordering. For example, if we were interested in ordering the rows by state and then by party affiliation.

arrange(congress_age, state, party)

## # A tibble: 18,635 x 13
##    congress chamber bioguide firstname middlename lastname suffix birthday  
##       <int> <chr>   <chr>    <chr>     <chr>      <chr>    <chr>  <date>    
##  1       80 house   B000201  Edward    Lewis      Bartlett <NA>   1904-04-20
##  2       81 house   B000201  Edward    Lewis      Bartlett <NA>   1904-04-20
##  3       82 house   B000201  Edward    Lewis      Bartlett <NA>   1904-04-20
##  4       83 house   B000201  Edward    Lewis      Bartlett <NA>   1904-04-20
##  5       84 house   B000201  Edward    Lewis      Bartlett <NA>   1904-04-20
##  6       85 house   B000201  Edward    Lewis      Bartlett <NA>   1904-04-20
##  7       86 house   R000282  Ralph     Julian     Rivers   <NA>   1903-05-23
##  8       86 senate  G000508  Ernest    <NA>       Gruening <NA>   1887-02-06
##  9       86 senate  B000201  Edward    Lewis      Bartlett <NA>   1904-04-20
## 10       87 house   R000282  Ralph     Julian     Rivers   <NA>   1903-05-23
## # … with 18,625 more rows, and 5 more variables: state <chr>, party <chr>,
## #   incumbent <lgl>, termstart <date>, age <dbl>

More variables can easily be added to the arrange function. Notice from the above two commands that the ordering of the rows is in ascending order, if descending order is desired, the desc function. For example, to order the data starting with the latest congress first:

arrange(congress_age, desc(congress))

## # A tibble: 18,635 x 13
##    congress chamber bioguide firstname middlename lastname  suffix birthday  
##       <int> <chr>   <chr>    <chr>     <chr>      <chr>     <chr>  <date>    
##  1      113 house   H000067  Ralph     M.         Hall      <NA>   1923-05-03
##  2      113 house   D000355  John      D.         Dingell   <NA>   1926-07-08
##  3      113 house   C000714  John      <NA>       Conyers   Jr.    1929-05-16
##  4      113 house   S000480  Louise    McIntosh   Slaughter <NA>   1929-08-14
##  5      113 house   R000053  Charles   B.         Rangel    <NA>   1930-06-11
##  6      113 house   J000174  Sam       Robert     Johnson   <NA>   1930-10-11
##  7      113 house   Y000031  C.        W. Bill    Young     <NA>   1930-12-16
##  8      113 house   C000556  Howard    <NA>       Coble     <NA>   1931-03-18
##  9      113 house   L000263  Sander    M.         Levin     <NA>   1931-09-06
## 10      113 house   Y000033  Don       E.         Young     <NA>   1933-06-09
## # … with 18,625 more rows, and 5 more variables: state <chr>, party <chr>,
## #   incumbent <lgl>, termstart <date>, age <dbl>

Examples with select()

The select function is used to select columns (i.e. variables) from the data but keep all the rows. For example, maybe we only needed the congress number, the chamber, the party affiliation, and the age of the members of congress. We can reduce the data to just these variables using select.

select(congress_age, congress, chamber, party, age)

## # A tibble: 18,635 x 4
##    congress chamber party   age
##       <int> <chr>   <chr> <dbl>
##  1       80 house   D      85.9
##  2       80 house   D      83.2
##  3       80 house   D      80.7
##  4       80 house   R      78.8
##  5       80 house   R      78.3
##  6       80 house   R      78  
##  7       80 house   R      77.9
##  8       80 house   D      76.8
##  9       80 house   R      76  
## 10       80 house   R      75.8
## # … with 18,625 more rows

Similar to the arrange functions, the variables that you wish to keep are separated by commas and come after the data argument.

For more complex selection, the dplyr package has additional functions that are helpful for variable selection. These include:
- starts_with()
- ends_with()
- contains()
- matches()
- num_range()

These helper functions can be useful for selecting many variables that match a specific pattern. For example, suppose we were interested in selecting all the name variables, this can be accomplished using the contains function as follows:

select(congress_age, contains('name'))

## # A tibble: 18,635 x 3
##    firstname middlename lastname 
##    <chr>     <chr>      <chr>    
##  1 Joseph    Jefferson  Mansfield
##  2 Robert    Lee        Doughton 
##  3 Adolph    Joachim    Sabath   
##  4 Charles   Aubrey     Eaton    
##  5 William   <NA>       Lewis    
##  6 James     A.         Gallagher
##  7 Richard   Joseph     Welch    
##  8 Sol       <NA>       Bloom    
##  9 Merlin    <NA>       Hull     
## 10 Charles   Laceille   Gifford  
## # … with 18,625 more rows

Another useful shorthand to select multiple columns in succession is the : operator. For example, suppose we wanted to select all the variables between congress and bithday.

select(congress_age, congress:birthday)

## # A tibble: 18,635 x 8
##    congress chamber bioguide firstname middlename lastname  suffix birthday  
##       <int> <chr>   <chr>    <chr>     <chr>      <chr>     <chr>  <date>    
##  1       80 house   M000112  Joseph    Jefferson  Mansfield <NA>   1861-02-09
##  2       80 house   D000448  Robert    Lee        Doughton  <NA>   1863-11-07
##  3       80 house   S000001  Adolph    Joachim    Sabath    <NA>   1866-04-04
##  4       80 house   E000023  Charles   Aubrey     Eaton     <NA>   1868-03-29
##  5       80 house   L000296  William   <NA>       Lewis     <NA>   1868-09-22
##  6       80 house   G000017  James     A.         Gallagher <NA>   1869-01-16
##  7       80 house   W000265  Richard   Joseph     Welch     <NA>   1869-02-13
##  8       80 house   B000565  Sol       <NA>       Bloom     <NA>   1870-03-09
##  9       80 house   H000943  Merlin    <NA>       Hull      <NA>   1870-12-18
## 10       80 house   G000169  Charles   Laceille   Gifford   <NA>   1871-03-15
## # … with 18,625 more rows
…
