Model Assumptions | PSQF 6250
…
We could continue to model this variable by including additional predictors or interactions between our current predictors to attempt to remove this strong trend in the residuals. I’m going to stop here however and move on to another topic.

Exploring individual residuals

Evaluating all of the residuals in a single step using the plot function can be useful initially to explore model quality. However, eventually it is useful to explore residuals for specific values to explore why these are large.

There are a few options to do this, one uses the broom package, the other uses the modelr package. I show both below.

aug_afqt <- augment(afqt_alt)
aug_afqt

## # A tibble: 6,645 × 13
##    .rownames  afqt marital_comb height2 education2 log_income weight2 .fitted
##    <chr>     <dbl> <fct>          <dbl>      <dbl>      <dbl>   <dbl>   <dbl>
##  1 1          6.84 married       -7.10      -0.218       9.85  -33.3     39.9
##  2 2         49.4  married        2.90      -3.22       10.5   -32.3     30.2
##  3 3         99.4  married       -2.10       2.78       11.6     6.70    61.1
##  4 4         44.0  married       -4.10       0.782      10.6     8.70    47.3
##  5 5         59.7  married       -1.10       0.782      11.2     1.70    50.1
##  6 6         98.8  divorced       0.896      4.78       11.5    11.7     70.6
##  7 7         82.3  married        6.90       2.78       -6.91   36.7     60.0
##  8 8         50.3  divorced      -3.10      -1.22       11.2   -28.3     33.0
##  9 9         89.7  divorced       1.90      -1.22       11.0   -26.3     36.8
## 10 10        96.0  divorced       1.90      -0.218      11.9     5.70    42.2
## # … with 6,635 more rows, and 5 more variables: .resid <dbl>, .hat <dbl>,
## #   .sigma <dbl>, .cooksd <dbl>, .std.resid <dbl>

height_resid <- heights2 %>%
  add_residuals(afqt_alt) %>%
  add_predictions(afqt_alt)
height_resid

## # A tibble: 7,006 × 16
##    income height weight   age marital sex   education  afqt marital_comb income2
##     <int>  <dbl>  <int> <int> <fct>   <fct>     <int> <dbl> <fct>          <dbl>
##  1  19000     60    155    53 married fema…        13  6.84 married      1.9 e+4
##  2  35000     70    156    51 married fema…        10 49.4  married      3.5 e+4
##  3 105000     65    195    52 married male         16 99.4  married      1.05e+5
##  4  40000     63    197    54 married fema…        14 44.0  married      4   e+4
##  5  75000     66    190    49 married male         14 59.7  married      7.5 e+4
##  6 102000     68    200    49 divorc… fema…        18 98.8  divorced     1.02e+5
##  7      0     74    225    48 married male         16 82.3  married      1   e-3
##  8  70000     64    160    54 divorc… fema…        12 50.3  divorced     7   e+4
##  9  60000     69    162    55 divorc… male         12 89.7  divorced     6   e+4
## 10 150000     69    194    54 divorc… male         13 96.0  divorced     1.5 e+5
## # … with 6,996 more rows, and 6 more variables: height2 <dbl>,
## #   education2 <dbl>, weight2 <dbl>, log_income <dbl>, resid <dbl>, pred <dbl>

The benefit to the augment function from the broom package is that it includes more information. The main benefit fo the add_residuals function from the modelr pacakge is that it includes all of the original data, not just those variables included in the final model. Therefore if you are fitting a model and want to explore trends in residuals based on other data characteristics not currently in the model, using the add_residuals function would likely be better for this use.

Filtering and Plotting Residuals

Now that we have these in a data frame, we could easily plot or filter residuals to explore cases in which the model is not adequatly fitting the dependent variable. For example, maybe we want to explore residuals greater than 50 in absolute value. This can easily be done with dplyr and the filter function.

filter(height_resid, abs(resid) > 50)

## # A tibble: 113 × 16
##    income height weight   age marital sex   education  afqt marital_comb income2
##     <int>  <dbl>  <int> <int> <fct>   <fct>     <int> <dbl> <fct>          <dbl>
##  1  60000     69    162    55 divorc… male         12  89.7 divorced      6  e+4
##  2 150000     69    194    54 divorc… male         13  96.0 divorced      1.5e+5
##  3  45000     69    240    53 married male         12  98.8 married       4.5e+4
##  4      0     66    195    50 married fema…        14  99.2 married       1  e-3
##  5  93000     68    182    48 divorc… male         12  86.9 divorced      9.3e+4
##  6  43000     64    145    51 divorc… fema…        12  94.8 divorced      4.3e+4
##  7  52000     72    230    52 married male         12  93.1 married       5.2e+4
##  8  35000     59    165    49 divorc… fema…        12  80.0 divorced      3.5e+4
##  9  85000     61    140    55 married fema…        18  15.7 married       8.5e+4
## 10      0     69    186    55 separa… fema…        12  88.8 Other         1  e-3
## # … with 103 more rows, and 6 more variables: height2 <dbl>, education2 <dbl>,
## #   weight2 <dbl>, log_income <dbl>, resid <dbl>, pred <dbl>
…
