Model Introduction | PSQF 6250
…
This section of notes is going to make use of four R packages:

library(tidyverse)
library(modelr)
# install.packages("broom")
library(broom)
library(fivethirtyeight)

Simple Linear Regression

First we need some data. We are going to explore the data from the fivethirtyeight package called fandango. Here are the first few rows:

fandango

## # A tibble: 146 x 23
##    film    year rottentomatoes rottentomatoes_… metacritic metacritic_user  imdb
##    <chr>  <dbl>          <int>            <int>      <int>           <dbl> <dbl>
##  1 Aveng…  2015             74               86         66             7.1   7.8
##  2 Cinde…  2015             85               80         67             7.5   7.1
##  3 Ant-M…  2015             80               90         64             8.1   7.8
##  4 Do Yo…  2015             18               84         22             4.7   5.4
##  5 Hot T…  2015             14               28         29             3.4   5.1
##  6 The W…  2015             63               62         50             6.8   7.2
##  7 Irrat…  2015             42               53         53             7.6   6.9
##  8 Top F…  2014             86               64         81             6.8   6.5
##  9 Shaun…  2015             99               82         81             8.8   7.4
## 10 Love …  2015             89               87         80             8.5   7.8
## # … with 136 more rows, and 16 more variables: fandango_stars <dbl>,
## #   fandango_ratingvalue <dbl>, rt_norm <dbl>, rt_user_norm <dbl>,
## #   metacritic_norm <dbl>, metacritic_user_nom <dbl>, imdb_norm <dbl>,
## #   rt_norm_round <dbl>, rt_user_norm_round <dbl>, metacritic_norm_round <dbl>,
## #   metacritic_user_norm_round <dbl>, imdb_norm_round <dbl>,
## #   metacritic_user_vote_count <int>, imdb_user_vote_count <int>,
## #   fandango_votes <int>, fandango_difference <dbl>
…
Exercises

Fit a new model using the fandango data that attempts to explain the metacritic ratings with the imdb rating.

Fit another model using the fandango data that attempts to explain the metacritic ratings with the fandango_ratingvalue scores.

Exploring the predictors of these two new models with the one fitted above with the rottentomatoes scores, which rating score best helps us predict the metacritic scores?

Workings Behind lm function

To see what the lm function is doing behind the scenes, we will use the model_matrix function from the modelr package. For example, from the model above:

model_matrix(fandango, metacritic ~ rottentomatoes)

## # A tibble: 146 x 2
##    `(Intercept)` rottentomatoes
##            <dbl>          <dbl>
##  1             1             74
##  2             1             85
##  3             1             80
##  4             1             18
##  5             1             14
##  6             1             63
##  7             1             42
##  8             1             86
##  9             1             99
## 10             1             89
## # … with 136 more rows

This is often referred to as the design matrix in statistics text books and is one of the matrices that are used by lm to calculate the estimated parameters from above. Notice that is automatically included the intercept, normally this is of interest, if it is not, we can omit it directly by including a -1 in the formula. For example:

model_matrix(fandango, metacritic ~ rottentomatoes - 1)

## # A tibble: 146 x 1
##    rottentomatoes
##             <dbl>
##  1             74
##  2             85
##  3             80
##  4             18
##  5             14
##  6             63
##  7             42
##  8             86
##  9             99
## 10             89
## # … with 136 more rows
…
Categorical Predictors

Suppose we were interested in the following research question:

To what extent are there average differences in movie ratings between rottentomatoes and metacritic?

To answer this research question, we would need to transform our data to great a group variable and a rating variable.

meta_rotten <- fandango %>%
  select(film, year, rottentomatoes, metacritic) %>%
  gather(group, rating, rottentomatoes, metacritic)
meta_rotten

## # A tibble: 292 x 4
##    film                     year group          rating
##    <chr>                   <dbl> <chr>           <int>
##  1 Avengers: Age of Ultron  2015 rottentomatoes     74
##  2 Cinderella               2015 rottentomatoes     85
##  3 Ant-Man                  2015 rottentomatoes     80
##  4 Do You Believe?          2015 rottentomatoes     18
##  5 Hot Tub Time Machine 2   2015 rottentomatoes     14
##  6 The Water Diviner        2015 rottentomatoes     63
##  7 Irrational Man           2015 rottentomatoes     42
##  8 Top Five                 2014 rottentomatoes     86
##  9 Shaun the Sheep Movie    2015 rottentomatoes     99
## 10 Love & Mercy             2015 rottentomatoes     89
## # … with 282 more rows
…
tidy(lm(rating ~ factor(group), data = meta_rotten))

## # A tibble: 2 x 5
##   term                        estimate std.error statistic  p.value
##   <chr>                          <dbl>     <dbl>     <dbl>    <dbl>
## 1 (Intercept)                    58.8       2.10    28.0   2.50e-84
## 2 factor(group)rottentomatoes     2.04      2.97     0.686 4.93e- 1

To see exactly what is happening, model_matrix may be useful. First I am going to arrange the data by the films in alphabetical order.

meta_rotten %>%
  arrange(film)

## # A tibble: 292 x 4
##    film                 year group          rating
##    <chr>               <dbl> <chr>           <int>
##  1 '71                  2015 rottentomatoes     97
##  2 '71                  2015 metacritic         83
##  3 5 Flights Up         2015 rottentomatoes     52
##  4 5 Flights Up         2015 metacritic         55
##  5 A Little Chaos       2015 rottentomatoes     40
##  6 A Little Chaos       2015 metacritic         51
##  7 A Most Violent Year  2014 rottentomatoes     90
##  8 A Most Violent Year  2014 metacritic         79
##  9 About Elly           2015 rottentomatoes     97
## 10 About Elly           2015 metacritic         87
## # … with 282 more rows

meta_rotten %>%
  arrange(film) %>%
  model_matrix(rating ~ factor(group))

## # A tibble: 292 x 2
##    `(Intercept)` `factor(group)rottentomatoes`
##            <dbl>                         <dbl>
##  1             1                             1
##  2             1                             0
##  3             1                             1
##  4             1                             0
##  5             1                             1
##  6             1                             0
##  7             1                             1
##  8             1                             0
##  9             1                             1
## 10             1                             0
## # … with 282 more rows
…
## # A tibble: 1 x 12
##   r.squared adj.r.squared sigma statistic p.value    df logLik   AIC   BIC
##       <dbl>         <dbl> <dbl>     <dbl>   <dbl> <dbl>  <dbl> <dbl> <dbl>
## 1   0.00162      -0.00182  25.4     0.471   0.493     1 -1358. 2722. 2733.
## # … with 3 more variables: deviance <dbl>, df.residual <int>, nobs <int>

These are now in a more tidy data frame and if you have multiple models in an exploratory analysis, these could then be much easier compared and combined programmatically to come to a final model.

Another useful function from the broom package is augment. This function will add additional information to the original data such as residuals, fitted (predicted) values, and other diagnostic statistics.

diagnostic <- augment(lm(rating ~ factor(group), data = meta_rotten))
diagnostic

## # A tibble: 292 x 7
##    rating `factor(group)` .fitted    .hat .sigma   .cooksd .std.resid
##     <int> <fct>             <dbl>   <dbl>  <dbl>     <dbl>      <dbl>
##  1     74 rottentomatoes     60.8 0.00685   25.4 0.000930      0.519 
##  2     85 rottentomatoes     60.8 0.00685   25.4 0.00314       0.954 
##  3     80 rottentomatoes     60.8 0.00685   25.4 0.00197       0.756 
##  4     18 rottentomatoes     60.8 0.00685   25.3 0.00988      -1.69  
##  5     14 rottentomatoes     60.8 0.00685   25.3 0.0118       -1.85  
##  6     63 rottentomatoes     60.8 0.00685   25.5 0.0000249     0.0849
##  7     42 rottentomatoes     60.8 0.00685   25.4 0.00191      -0.744 
##  8     86 rottentomatoes     60.8 0.00685   25.4 0.00340       0.993 
##  9     99 rottentomatoes     60.8 0.00685   25.4 0.00783       1.51  
## 10     89 rottentomatoes     60.8 0.00685   25.4 0.00426       1.11  
## # … with 282 more rows
…
We will explore more details on predicted or fitted values later.

Lastly, the augment function can be useful, however I personally do not like the naming convention used by the function. I want to point you to two additional functions from the modelr package that can be useful for predicted (add_predictions) and residual values (add_residuals).

For example, to add the residuals to the original data:

meta_rotten %>%
  add_residuals(lm(rating ~ factor(group), data = meta_rotten))

## # A tibble: 292 x 5
##    film                     year group          rating  resid
##    <chr>                   <dbl> <chr>           <int>  <dbl>
##  1 Avengers: Age of Ultron  2015 rottentomatoes     74  13.2 
##  2 Cinderella               2015 rottentomatoes     85  24.2 
##  3 Ant-Man                  2015 rottentomatoes     80  19.2 
##  4 Do You Believe?          2015 rottentomatoes     18 -42.8 
##  5 Hot Tub Time Machine 2   2015 rottentomatoes     14 -46.8 
##  6 The Water Diviner        2015 rottentomatoes     63   2.15
##  7 Irrational Man           2015 rottentomatoes     42 -18.8 
##  8 Top Five                 2014 rottentomatoes     86  25.2 
##  9 Shaun the Sheep Movie    2015 rottentomatoes     99  38.2 
## 10 Love & Mercy             2015 rottentomatoes     89  28.2 
## # … with 282 more rows
…
