Exploratory Data Analysis | PSQF 6250
…
          Exploratory Data Analysis

Exploratory data analysis (EDA) is an important step in exploring and understanding your data. In addition, EDA does not suffer from problems with inferential statistics related to multiple (correlated) models on the same data. Instead, EDA is a great way to visualize, summarize, and prod your data without any consequences.

For this set of notes, we are going to use the following packages:

library(nycflights13)
library(tidyverse)

We will use a few different data sets, but the one we are going to start with is the flights data from the nycflights13 package. Below is the first 10 rows of the data.

flights

## # A tibble: 336,776 × 19
##     year month   day dep_time sched_dep_time dep_delay arr_time sched_arr_time
##    <int> <int> <int>    <int>          <int>     <dbl>    <int>          <int>
##  1  2013     1     1      517            515         2      830            819
##  2  2013     1     1      533            529         4      850            830
##  3  2013     1     1      542            540         2      923            850
##  4  2013     1     1      544            545        -1     1004           1022
##  5  2013     1     1      554            600        -6      812            837
##  6  2013     1     1      554            558        -4      740            728
##  7  2013     1     1      555            600        -5      913            854
##  8  2013     1     1      557            600        -3      709            723
##  9  2013     1     1      557            600        -3      838            846
## 10  2013     1     1      558            600        -2      753            745
## # … with 336,766 more rows, and 11 more variables: arr_delay <dbl>,
## #   carrier <chr>, flight <int>, tailnum <chr>, origin <chr>, dest <chr>,
## #   air_time <dbl>, distance <dbl>, hour <dbl>, minute <dbl>, time_hour <dttm>
…
This summary can be a bit difficult to digest at first, but can give some useful insight into the variables, including the amount of missing data for each variable.

You can dive into looking at specific rows that are missing with the filter command and the is.na function. An example pulling out rows with a missing dep_time values is illustrated:

filter(flights, is.na(dep_time))

## # A tibble: 8,255 × 19
##     year month   day dep_time sched_dep_time dep_delay arr_time sched_arr_time
##    <int> <int> <int>    <int>          <int>     <dbl>    <int>          <int>
##  1  2013     1     1       NA           1630        NA       NA           1815
##  2  2013     1     1       NA           1935        NA       NA           2240
##  3  2013     1     1       NA           1500        NA       NA           1825
##  4  2013     1     1       NA            600        NA       NA            901
##  5  2013     1     2       NA           1540        NA       NA           1747
##  6  2013     1     2       NA           1620        NA       NA           1746
##  7  2013     1     2       NA           1355        NA       NA           1459
##  8  2013     1     2       NA           1420        NA       NA           1644
##  9  2013     1     2       NA           1321        NA       NA           1536
## 10  2013     1     2       NA           1545        NA       NA           1910
## # … with 8,245 more rows, and 11 more variables: arr_delay <dbl>,
## #   carrier <chr>, flight <int>, tailnum <chr>, origin <chr>, dest <chr>,
## #   air_time <dbl>, distance <dbl>, hour <dbl>, minute <dbl>, time_hour <dttm>

We can also build more complex operations to look at data that is missing for one variable, but not another. For instance, if you look at the summary information above, you may notice there are more missing values for the arr_delay variable compared to the arr_time variable. To look at these values you can use the following command:

filter(flights, is.na(arr_delay) & !is.na(arr_time))

## # A tibble: 717 × 19
##     year month   day dep_time sched_dep_time dep_delay arr_time sched_arr_time
##    <int> <int> <int>    <int>          <int>     <dbl>    <int>          <int>
##  1  2013     1     1     1525           1530        -5     1934           1805
##  2  2013     1     1     1528           1459        29     2002           1647
##  3  2013     1     1     1740           1745        -5     2158           2020
##  4  2013     1     1     1807           1738        29     2251           2103
##  5  2013     1     1     1939           1840        59       29           2151
##  6  2013     1     1     1952           1930        22     2358           2207
##  7  2013     1     2      905            822        43     1313           1045
##  8  2013     1     2     1125            925       120     1445           1146
##  9  2013     1     2     1848           1840         8     2333           2151
## 10  2013     1     2     1849           1724        85     2235           1938
## # … with 707 more rows, and 11 more variables: arr_delay <dbl>, carrier <chr>,
## #   flight <int>, tailnum <chr>, origin <chr>, dest <chr>, air_time <dbl>,
## #   distance <dbl>, hour <dbl>, minute <dbl>, time_hour <dttm>
…
You can also calculate the counts plotted in the histograms and frequency polygons using the count as with qualitative variables. We just now need to use the cut_width function to specify bins.

flights %>%
  count(cut_width(distance, 100))

## # A tibble: 28 × 2
##    `cut_width(distance, 100)`     n
##    <fct>                      <int>
##  1 [-50,50]                       1
##  2 (50,150]                    2514
##  3 (150,250]                  36839
##  4 (250,350]                  18442
##  5 (350,450]                  15233
##  6 (450,550]                  29149
##  7 (550,650]                  11688
##  8 (650,750]                  33482
##  9 (750,850]                  19482
## 10 (850,950]                  19644
## # … with 18 more rows
…
Note, that in the above plot, coord_cartesian does not remove any points, simply changes the coordinates that are plotted. We could also pull these out using filter as well.

flights %>%
  filter(distance > 3000) %>%
  arrange(distance)

## # A tibble: 715 × 19
##     year month   day dep_time sched_dep_time dep_delay arr_time sched_arr_time
##    <int> <int> <int>    <int>          <int>     <dbl>    <int>          <int>
##  1  2013     7     6     1629           1615        14     1954           1953
##  2  2013     7    13     1618           1615         3     1955           1953
##  3  2013     7    20     1618           1615         3     2003           1953
##  4  2013     7    27     1617           1615         2     1906           1953
##  5  2013     8     3     1615           1615         0     2003           1953
##  6  2013     8    10     1613           1615        -2     1922           1953
##  7  2013     8    17     1740           1625        75     2042           2003
##  8  2013     8    24     1633           1625         8     1959           2003
##  9  2013     1     1     1344           1344         0     2005           1944
## 10  2013     1     2     1344           1344         0     1940           1944
## # … with 705 more rows, and 11 more variables: arr_delay <dbl>, carrier <chr>,
## #   flight <int>, tailnum <chr>, origin <chr>, dest <chr>, air_time <dbl>,
## #   distance <dbl>, hour <dbl>, minute <dbl>, time_hour <dttm>
…
