Working with Character Strings | PSQF 6250
…
To give a sense of some real world applications of regular expressions, I’m going to use the “ufo.csv” data we used once previously.

ufo <- read_csv('https://raw.githubusercontent.com/lebebr01/psqf-6250-blogdown/main/data/ufo.csv')

## Rows: 8031 Columns: 7
## ── Column specification ────────────────────────────────────────────────────────
## Delimiter: ","
## chr (7): Date / Time, City, State, Shape, Duration, Summary, Posted
## 
## ℹ Use `spec()` to retrieve the full column specification for this data.
## ℹ Specify the column types or set `show_col_types = FALSE` to quiet this message.

ufo

## # A tibble: 8,031 × 7
##    `Date / Time`  City                     State Shape   Duration Summary Posted
##    <chr>          <chr>                    <chr> <chr>   <chr>    <chr>   <chr> 
##  1 12/12/14 17:30 North Wales              PA    Triang… 5 minut… "I hea… <NA>  
##  2 12/12/14 12:40 Cartersville             GA    Unknown 3.6 min… "Looki… 12/12…
##  3 12/12/14 06:30 Isle of Man (UK/England) <NA>  Light   2 secon… "Over … 12/12…
##  4 12/12/14 01:00 Miamisburg               OH    Changi… <NA>     "Brigh… 12/12…
##  5 12/12/14 00:00 Spotsylvania             VA    Unknown 1 minute "White… 12/12…
##  6 12/11/14 23:25 Kenner                   LA    Chevron ~1 minu… "Stran… 12/12…
##  7 12/11/14 23:15 Eugene                   OR    Disk    2 minut… "Dual … 12/12…
##  8 12/11/14 20:04 Phoenix                  AZ    Chevron 3 minut… "4 Ora… 12/12…
##  9 12/11/14 20:00 Franklin                 NC    Disk    5 minut… "There… 12/12…
## 10 12/11/14 18:30 Longview                 WA    Cylind… 10 seco… "Two c… 12/12…
## # … with 8,021 more rows
…
It could also be useful to count the number of times colors were mentioned in the summary text.

ufo %>%
  mutate(
    num_colors = str_count(Summary, 'white|green|red|blue|orange|purple|yellow')
  )

## # A tibble: 8,031 × 8
##    `Date / Time`  City            State Shape Duration Summary Posted num_colors
##    <chr>          <chr>           <chr> <chr> <chr>    <chr>   <chr>       <int>
##  1 12/12/14 17:30 North Wales     PA    Tria… 5 minut… "I hea… <NA>            1
##  2 12/12/14 12:40 Cartersville    GA    Unkn… 3.6 min… "Looki… 12/12…          3
##  3 12/12/14 06:30 Isle of Man (U… <NA>  Light 2 secon… "Over … 12/12…          0
##  4 12/12/14 01:00 Miamisburg      OH    Chan… <NA>     "Brigh… 12/12…          0
##  5 12/12/14 00:00 Spotsylvania    VA    Unkn… 1 minute "White… 12/12…          1
##  6 12/11/14 23:25 Kenner          LA    Chev… ~1 minu… "Stran… 12/12…          0
##  7 12/11/14 23:15 Eugene          OR    Disk  2 minut… "Dual … 12/12…          1
##  8 12/11/14 20:04 Phoenix         AZ    Chev… 3 minut… "4 Ora… 12/12…          0
##  9 12/11/14 20:00 Franklin        NC    Disk  5 minut… "There… 12/12…          2
## 10 12/11/14 18:30 Longview        WA    Cyli… 10 seco… "Two c… 12/12…          0
## # … with 8,021 more rows
…
For time components, these are the shorthand notation.
* h = hours
* m = minutes
* s = seconds

Note that “m” stands for both minute and month, but is used in context with either the date or time conversion. The lubridate package will handle this for us. Based on this table and the pattern depicted above, we can convert this with the following pattern and function: mdy_hm(). This can be read in English as, month, day, year followed by hour and minute.

ufo <- ufo %>%
  mutate(converted_date = mdy_hm(`Date / Time`))

## Warning: 56 failed to parse.

ufo

## # A tibble: 8,031 × 8
##    `Date / Time`  City   State Shape Duration Summary Posted converted_date     
##    <chr>          <chr>  <chr> <chr> <chr>    <chr>   <chr>  <dttm>             
##  1 12/12/14 17:30 North… PA    Tria… 5 minut… "I hea… <NA>   2014-12-12 17:30:00
##  2 12/12/14 12:40 Carte… GA    Unkn… 3.6 min… "Looki… 12/12… 2014-12-12 12:40:00
##  3 12/12/14 06:30 Isle … <NA>  Light 2 secon… "Over … 12/12… 2014-12-12 06:30:00
##  4 12/12/14 01:00 Miami… OH    Chan… <NA>     "Brigh… 12/12… 2014-12-12 01:00:00
##  5 12/12/14 00:00 Spots… VA    Unkn… 1 minute "White… 12/12… 2014-12-12 00:00:00
##  6 12/11/14 23:25 Kenner LA    Chev… ~1 minu… "Stran… 12/12… 2014-12-11 23:25:00
##  7 12/11/14 23:15 Eugene OR    Disk  2 minut… "Dual … 12/12… 2014-12-11 23:15:00
##  8 12/11/14 20:04 Phoen… AZ    Chev… 3 minut… "4 Ora… 12/12… 2014-12-11 20:04:00
##  9 12/11/14 20:00 Frank… NC    Disk  5 minut… "There… 12/12… 2014-12-11 20:00:00
## 10 12/11/14 18:30 Longv… WA    Cyli… 10 seco… "Two c… 12/12… 2014-12-11 18:30:00
## # … with 8,021 more rows
…
ufo %>%
  mutate(
    year = year(converted_date),
    month = month(converted_date),
    day = day(converted_date),
    hour = hour(converted_date),
    minute = minute(converted_date),
    month_label_abbr = month(converted_date, label = TRUE),
    wday_abbr = wday(converted_date, label = TRUE),
    month_label = month(converted_date, label = TRUE, abbr = FALSE),
    wday = wday(converted_date, label = TRUE, abbr = FALSE)
  )

## # A tibble: 8,031 × 17
##    `Date / Time`  City   State Shape Duration Summary Posted converted_date     
##    <chr>          <chr>  <chr> <chr> <chr>    <chr>   <chr>  <dttm>             
##  1 12/12/14 17:30 North… PA    Tria… 5 minut… "I hea… <NA>   2014-12-12 17:30:00
##  2 12/12/14 12:40 Carte… GA    Unkn… 3.6 min… "Looki… 12/12… 2014-12-12 12:40:00
##  3 12/12/14 06:30 Isle … <NA>  Light 2 secon… "Over … 12/12… 2014-12-12 06:30:00
##  4 12/12/14 01:00 Miami… OH    Chan… <NA>     "Brigh… 12/12… 2014-12-12 01:00:00
##  5 12/12/14 00:00 Spots… VA    Unkn… 1 minute "White… 12/12… 2014-12-12 00:00:00
##  6 12/11/14 23:25 Kenner LA    Chev… ~1 minu… "Stran… 12/12… 2014-12-11 23:25:00
##  7 12/11/14 23:15 Eugene OR    Disk  2 minut… "Dual … 12/12… 2014-12-11 23:15:00
##  8 12/11/14 20:04 Phoen… AZ    Chev… 3 minut… "4 Ora… 12/12… 2014-12-11 20:04:00
##  9 12/11/14 20:00 Frank… NC    Disk  5 minut… "There… 12/12… 2014-12-11 20:00:00
## 10 12/11/14 18:30 Longv… WA    Cyli… 10 seco… "Two c… 12/12… 2014-12-11 18:30:00
## # … with 8,021 more rows, and 9 more variables: year <dbl>, month <dbl>,
## #   day <int>, hour <int>, minute <int>, month_label_abbr <ord>,
## #   wday_abbr <ord>, month_label <ord>, wday <ord>
…
