Factors | PSQF 6250
…
Common Factor Manipulations

In addition to setting the levels of the variable, there are two common tasks useful with factors.

Reorder factor levels for plotting or table creation

Change the levels of the factor (i.e. collapse levels)

Examples of each of these will be given with the weather_check data from the fivethirtyeight package.

weather_check

## # A tibble: 928 x 9
##    respondent_id ck_weather weather_source     weather_source_… ck_weather_watch
##            <dbl> <lgl>      <chr>              <chr>            <ord>           
##  1    3887201482 TRUE       The default weath… <NA>             Very likely     
##  2    3887159451 TRUE       The default weath… <NA>             Very likely     
##  3    3887152228 TRUE       The default weath… <NA>             Very likely     
##  4    3887145426 TRUE       The default weath… <NA>             Somewhat likely 
##  5    3887021873 TRUE       A specific websit… Iphone app       Very likely     
##  6    3886937140 TRUE       A specific websit… AccuWeather App  Somewhat likely 
##  7    3886923931 TRUE       The Weather Chann… <NA>             Very unlikely   
##  8    3886913587 TRUE       <NA>               <NA>             <NA>            
##  9    3886889048 TRUE       The Weather Chann… <NA>             Very likely     
## 10    3886848806 TRUE       The default weath… <NA>             Very likely     
## # … with 918 more rows, and 4 more variables: age <fct>, female <lgl>,
## #   hhold_income <ord>, region <chr>
…
