Data Restructuring | PSQF 6250
…
Long/Stacked Data

The data read in above is in a format that is commonly referred to as long or stacked data.

long_data

## # A tibble: 27 x 7
##       id  wave agegrp   age  piat agegrp.c  age.c
##    <dbl> <dbl>  <dbl> <dbl> <dbl>    <dbl>  <dbl>
##  1     4     1    6.5  6       18        0 -0.5  
##  2     4     2    8.5  8.5     31        2  2    
##  3     4     3   10.5 10.7     50        4  4.17 
##  4    27     1    6.5  6.25    19        0 -0.25 
##  5    27     2    8.5  9.17    36        2  2.67 
##  6    27     3   10.5 10.9     57        4  4.42 
##  7    31     1    6.5  6.33    18        0 -0.167
##  8    31     2    8.5  8.83    31        2  2.33 
##  9    31     3   10.5 10.9     51        4  4.42 
## 10    33     1    6.5  6.33    18        0 -0.167
## # … with 17 more rows
…
These two functions are relatively new and they still may change as they continue to be developed. I believe the old functions will be deprecated, but not removed entirely. This means they will not be actively developed any longer, but will remain in the tidyr package for the forseeable future.

It should also be noted there are mutiple R packages for data restructuring, including reshape and reshape2. The syntax for these has always been difficult for me to fully process and internalize, but they are incredibly powerful. I believe almost every data restructuring task can be accomplished by pivot_longer() and pivot_wider() (with some companion functions), but it may take a few extra steps to get to the desired structure.

Extra Long Data

To progress through data restructuring, we first need to transform this data is extra long format. This format is not entirely useful by itself, however it will help use show the use of a few functions from the tidyr package. To go to extra long data, we will make use of the pivot_longer() and unite functions.

extra_long <- long_data %>%
  pivot_longer(agegrp:age.c, names_to = 'variable', values_to = 'value') %>%
  unite(var_wave, variable, wave)
extra_long 

## # A tibble: 135 x 3
##       id var_wave   value
##    <dbl> <chr>      <dbl>
##  1     4 agegrp_1     6.5
##  2     4 age_1        6  
##  3     4 piat_1      18  
##  4     4 agegrp.c_1   0  
##  5     4 age.c_1     -0.5
##  6     4 agegrp_2     8.5
##  7     4 age_2        8.5
##  8     4 piat_2      31  
##  9     4 agegrp.c_2   2  
## 10     4 age.c_2      2  
## # … with 125 more rows
…
This data structure is common, particularly for users of SPSS or Excel for data entry or processing. Unfortunately, when working with data in R (and in general), data in wide format is often difficult to work with. Therefore it is common to need to restructure the data from wide to long format.

Back to Long Format

Fortunately, we can use the same functions as we used above, but now in inverse to get from wide to long format.

wide %>% 
  pivot_longer(-id, names_to = "variable", values_to = "value") %>%
  separate(variable, into = c('variable', 'wave'), 
           sep = "_") %>%
  arrange(id, wave) %>%
  pivot_wider(names_from = variable, values_from = value)

## # A tibble: 27 x 7
##       id wave  agegrp   age  piat agegrp.c  age.c
##    <dbl> <chr>  <dbl> <dbl> <dbl>    <dbl>  <dbl>
##  1     4 1        6.5  6       18        0 -0.5  
##  2     4 2        8.5  8.5     31        2  2    
##  3     4 3       10.5 10.7     50        4  4.17 
##  4    27 1        6.5  6.25    19        0 -0.25 
##  5    27 2        8.5  9.17    36        2  2.67 
##  6    27 3       10.5 10.9     57        4  4.42 
##  7    31 1        6.5  6.33    18        0 -0.167
##  8    31 2        8.5  8.83    31        2  2.33 
##  9    31 3       10.5 10.9     51        4  4.42 
## 10    33 1        6.5  6.33    18        0 -0.167
## # … with 17 more rows
…
